demo/all-signals.vcd
$date web-logic-analyzer $end
$timescale 1 ps $end
$comment web-logic-analyzer samplerate=1000000 samples=6512 $end
$scope module fx2la $end
$var wire 1 ! D0 $end
$var wire 1 " D1 $end
$var wire 1 # D2 $end
$var wire 1 $ D3 $end
$var wire 1 % D4 $end
$var wire 1 & D5 $end
$var wire 1 ' D6 $end
$var wire 1 ( D7 $end
$upscope $end
$enddefinitions $end
#0
1!
0"
0#
0$
1%
1&
1'
1(
#218000000
0!
#254000000
1!
#263000000
0!
#281000000
1!
#290000000
0!
#299000000
1!
#335000000
0!
#344000000
1!
#353000000
0!
#362000000
1!
#371000000
0!
#389000000
1!
#407000000
0!
#416000000
1!
#452000000
0!
#479000000
1!
#497000000
0!
#506000000
1!
#524000000
0!
#533000000
1!
#569000000
0!
#596000000
1!
#614000000
0!
#623000000
1!
#641000000
0!
#650000000
1!
#686000000
0!
#695000000
1!
#731000000
0!
#740000000
1!
#758000000
0!
#767000000
1!
#803000000
0!
#821000000
1!
#830000000
0!
#839000000
1!
#848000000
0!
#884000000
1!
#1118000000
1#
1$
#1126000000
1"
#1134000000
0"
0#
#1142000000
1"
#1150000000
0"
#1158000000
1"
#1166000000
0"
1#
0$
#1174000000
1"
#1182000000
0"
1$
#1190000000
1"
#1198000000
0"
#1206000000
1"
#1214000000
0"
#1222000000
1"
#1230000000
0"
#1238000000
1"
#1246000000
0"
0$
#1254000000
1"
#1262000000
0"
0#
1$
#1270000000
1"
#1278000000
0"
1#
0$
#1286000000
1"
#1294000000
0"
0#
1$
#1302000000
1"
#1310000000
0"
#1318000000
1"
#1326000000
0"
1#
0$
#1334000000
1"
#1342000000
0"
0#
1$
#1350000000
1"
#1358000000
0"
1#
0$
#1366000000
1"
#1374000000
0"
0#
1$
#1382000000
1"
#1390000000
0"
#1398000000
1"
#1406000000
0"
1#
0$
#1414000000
1"
#1422000000
0"
#1430000000
1"
#1438000000
0"
#1446000000
1"
#1454000000
0"
#1462000000
1"
#1470000000
0"
0#
1$
#1478000000
1"
#1486000000
0"
#1494000000
1"
#1502000000
0"
0$
#1730000000
0&
#1736000000
0%
1&
#1742000000
1%
#1748000000
0%
0&
#1754000000
1%
#1760000000
0%
1&
#1766000000
1%
#1772000000
0%
0&
#1778000000
1%
#1784000000
0%
#1790000000
1%
#1796000000
0%
#1802000000
1%
#1808000000
0%
#1814000000
1%
#1820000000
0%
#1826000000
1%
#1832000000
0%
#1838000000
1%
#1844000000
0%
#1850000000
1%
#1856000000
0%
#1862000000
1%
#1868000000
0%
#1874000000
1%
#1880000000
0%
#1886000000
1%
#1892000000
0%
#1898000000
1%
#1904000000
0%
#1910000000
1%
#1916000000
0%
#1922000000
1%
#1928000000
0%
#1934000000
1%
#1940000000
0%
#1946000000
1%
#1952000000
0%
#1958000000
1%
#1964000000
0%
1&
#1970000000
1%
#1976000000
0%
0&
#1982000000
1%
#1988000000
0%
#1994000000
1%
#2000000000
0%
#2006000000
1%
#2012000000
0%
#2018000000
1%
#2024000000
0%
1&
#2030000000
1%
#2036000000
0%
0&
#2042000000
1%
#2048000000
0%
#2054000000
1%
#2060000000
0%
#2066000000
1%
#2072000000
1&
#2132000000
0&
#2138000000
0%
1&
#2144000000
1%
#2150000000
0%
0&
#2156000000
1%
#2162000000
0%
1&
#2168000000
1%
#2174000000
0%
0&
#2180000000
1%
#2186000000
0%
#2192000000
1%
#2198000000
0%
#2204000000
1%
#2210000000
0%
#2216000000
1%
#2222000000
0%
1&
#2228000000
1%
#2234000000
0%
0&
#2240000000
1%
#2246000000
0%
1&
#2252000000
1%
#2258000000
0%
0&
#2264000000
1%
#2270000000
0%
1&
#2276000000
1%
#2282000000
0%
0&
#2288000000
1%
#2294000000
0%
1&
#2300000000
1%
#2306000000
0%
0&
#2312000000
1%
#2318000000
0%
1&
#2324000000
1%
#2330000000
0%
#2336000000
1%
#2342000000
0%
0&
#2348000000
1%
#2354000000
0%
1&
#2360000000
1%
#2366000000
0%
#2372000000
1%
#2378000000
0%
0&
#2384000000
1%
#2390000000
0%
#2396000000
1%
#2402000000
0%
1&
#2408000000
1%
#2414000000
0%
#2420000000
1%
#2426000000
0%
0&
#2432000000
1%
#2438000000
0%
1&
#2444000000
1%
#2450000000
0%
0&
#2456000000
1%
#2462000000
0%
#2468000000
1%
#2474000000
1&
#2792000000
0'
#3292000000
1'
#3342000000
0'
#3462000000
1'
#3512000000
0'
#3517000000
1'
#3582000000
0'
#3587000000
1'
#3652000000
0'
#3712000000
1'
#3722000000
0'
#3782000000
1'
#3792000000
0'
#3797000000
1'
#3862000000
0'
#3867000000
1'
#3932000000
0'
#3992000000
1'
#4002000000
0'
#4062000000
1'
#4112000000
0'
#4172000000
1'
#4182000000
0'
#4242000000
1'
#4252000000
0'
#4257000000
1'
#4322000000
0'
#4327000000
1'
#4392000000
0'
#4452000000
1'
#4462000000
0'
#4522000000
1'
#4532000000
0'
#4537000000
1'
#4602000000
0'
#4607000000
1'
#5052000000
0(
#5082000000
1(
#5092000000
0(
#5112000000
1(
#5122000000
0(
#5152000000
1(
#5172000000
0(
#5222000000
1(
#5242000000
0(
#5252000000
1(
#5272000000
0(
#5282000000
1(
#5322000000
0(
#5332000000
1(
#5342000000
0(
#5352000000
1(
#5362000000
0(
#5372000000
1(
#5392000000
0(
#5402000000
1(
#5412000000
0(
#5422000000
1(
#5432000000
0(
#5442000000
1(
#5452000000
0(
#5462000000
1(
#5472000000
0(
#5482000000
1(
#5492000000
0(
#5502000000
1(
#5512000000
0(
#5522000000
1(
#5532000000
0(
#5542000000
1(
#5552000000
0(
#5562000000
1(
#5572000000
0(
#5582000000
1(
#5742000000
0(
#5752000000
1(
#5792000000
0(
#5802000000
1(
#5812000000
0(
#5832000000
1(
#5842000000
0(
#5852000000
1(
#5862000000
0(
#5912000000
1(
#5922000000
0(
#5932000000
1(
#5942000000
0(
#5952000000
1(
#5962000000
0(
#5972000000
1(
#5982000000
0(
#5992000000
1(
#6002000000
0(
#6012000000
1(
#6022000000
0(
#6032000000
1(
#6042000000
0(
#6052000000
1(
#6062000000
0(
#6072000000
1(
#6082000000
0(
#6092000000
1(
#6102000000
0(
#6112000000
1(
#6122000000
0(
#6132000000
1(
#6142000000
0(
#6152000000
1(
#6162000000
0(
#6172000000
1(
#6182000000
0(
#6192000000
1(
